1.149
1.147
1.142
1.136
1.130
1.123
1.115
1.107
1.098
1.088
1.077
1.066
1.054
1.042
1.028
1.015
1.000
0.985
0.969
0.954
0.938
0.921
0.905
0.888
0.870
0.852
0.835
0.817
0.798
0.780
0.761
0.742
0.723
0.704
0.684
0.665
0.646
0.627
0.608
0.589
0.570
0.552
0.533
0.515
0.497
0.480
0.462
0.445
0.428
0.411
0.394
0.378
0.362
0.346
0.330
0.314
0.298
0.282
0.266
0.250
0.233
0.218
0.202
0.187
0.173
0.159
0.146
0.134
0.123
0.113
0.104

